{
  "status": "failed",
  "errors": [
    {
      "kind": "temporary",
      "id": "proto.006-PsCARTHA.michelson_v1.runtime_error",
      "contract_handle": "KT1RTPET3gNv6AwZey7mYzNShC5dNteVu18E",
      "contract_code": [
        {
          "prim": "parameter",
          "args": [
            {
              "prim": "nat"
            }
          ]
        },
        {
          "prim": "storage",
          "args": [
            {
              "prim": "unit"
            }
          ]
        },
        {
          "prim": "code",
          "args": [
            [
              {
                "prim": "FAILWITH"
              }
            ]
          ]
        }
      ]
    },
    {
      "kind": "temporary",
      "id": "proto.006-PsCARTHA.michelson_v1.script_rejected",
      "location": 7,
      "with": {
        "prim": "Pair",
        "args": [
          {
            "int": "1546544"
          },
          {
            "prim": "Unit"
          }
        ]
      }
    }
  ]
}
