[
  {
    "type": "transaction",
    "id": 33695761,
    "level": 1165855,
    "timestamp": "2020-10-11T00:06:44Z",
    "block": "BLZYmTkezVieNS5CSgiiZGYheqbCZ1ab2oA9MFPeadDV6VB3C5b",
    "hash": "ooSiihVB3jYX6s91pSZ3Dk5Wuznj3M3UyVDxoesgyLo5waUeZwH",
    "counter": 7224496,
    "initiator": {
      "address": "tz1gV3LBv1XmVEkdeRTjuUdurvCf8P85eALM"
    },
    "sender": {
      "alias": "Dexter USDtz/XTZ",
      "address": "KT1Puc9St8wdNoGtLiD2WXaHbWU7styaxYhD"
    },
    "nonce": 1,
    "gasLimit": 0,
    "gasUsed": 121398,
    "storageLimit": 0,
    "storageUsed": 0,
    "bakerFee": 0,
    "storageFee": 0,
    "allocationFee": 0,
    "target": {
      "alias": "USDtz",
      "address": "KT1LN4LPSqTMS7Sd2CJw4bbDGRkMv2t68Fy9"
    },
    "amount": 0,
    "parameters": "{\"entrypoint\":\"transfer\",\"value\":{\"prim\":\"Pair\",\"args\":[{\"bytes\":\"0000e4a76e6b5d648570b5496912e70eeb4eebf8b1d8\"},{\"prim\":\"Pair\",\"args\":[{\"bytes\":\"01a819ed5da3593505f8085b2cb11a85fe5be237c400\"},{\"int\":\"726896912\"}]}]}}",
    "status": "applied",
    "hasInternals": false
  },
  {
    "type": "transaction",
    "id": 33695760,
    "level": 1165855,
    "timestamp": "2020-10-11T00:06:44Z",
    "block": "BLZYmTkezVieNS5CSgiiZGYheqbCZ1ab2oA9MFPeadDV6VB3C5b",
    "hash": "ooSiihVB3jYX6s91pSZ3Dk5Wuznj3M3UyVDxoesgyLo5waUeZwH",
    "counter": 7224496,
    "initiator": {
      "address": "tz1gV3LBv1XmVEkdeRTjuUdurvCf8P85eALM"
    },
    "sender": {
      "alias": "Dexter USDtz/XTZ",
      "address": "KT1Puc9St8wdNoGtLiD2WXaHbWU7styaxYhD"
    },
    "nonce": 0,
    "gasLimit": 0,
    "gasUsed": 10207,
    "storageLimit": 0,
    "storageUsed": 0,
    "bakerFee": 0,
    "storageFee": 0,
    "allocationFee": 0,
    "target": {
      "address": "tz1gV3LBv1XmVEkdeRTjuUdurvCf8P85eALM"
    },
    "amount": 291683372,
    "status": "applied",
    "hasInternals": false
  },
  {
    "type": "transaction",
    "id": 33695759,
    "level": 1165855,
    "timestamp": "2020-10-11T00:06:44Z",
    "block": "BLZYmTkezVieNS5CSgiiZGYheqbCZ1ab2oA9MFPeadDV6VB3C5b",
    "hash": "ooSiihVB3jYX6s91pSZ3Dk5Wuznj3M3UyVDxoesgyLo5waUeZwH",
    "counter": 7224496,
    "sender": {
      "address": "tz1gV3LBv1XmVEkdeRTjuUdurvCf8P85eALM"
    },
    "gasLimit": 482195,
    "gasUsed": 350490,
    "storageLimit": 0,
    "storageUsed": 0,
    "bakerFee": 48597,
    "storageFee": 0,
    "allocationFee": 0,
    "target": {
      "alias": "Dexter USDtz/XTZ",
      "address": "KT1Puc9St8wdNoGtLiD2WXaHbWU7styaxYhD"
    },
    "amount": 0,
    "parameters": "{\"entrypoint\":\"tokenToXtz\",\"value\":{\"prim\":\"Pair\",\"args\":[{\"prim\":\"Pair\",\"args\":[{\"string\":\"tz1gV3LBv1XmVEkdeRTjuUdurvCf8P85eALM\"},{\"string\":\"tz1gV3LBv1XmVEkdeRTjuUdurvCf8P85eALM\"}]},{\"prim\":\"Pair\",\"args\":[{\"int\":\"726896912\"},{\"prim\":\"Pair\",\"args\":[{\"int\":\"281766137\"},{\"string\":\"2020-10-11T00:25:39.425Z\"}]}]}]}}",
    "status": "applied",
    "hasInternals": true
  },
  {
    "type": "transaction",
    "id": 33695758,
    "level": 1165855,
    "timestamp": "2020-10-11T00:06:44Z",
    "block": "BLZYmTkezVieNS5CSgiiZGYheqbCZ1ab2oA9MFPeadDV6VB3C5b",
    "hash": "ooSiihVB3jYX6s91pSZ3Dk5Wuznj3M3UyVDxoesgyLo5waUeZwH",
    "counter": 7224495,
    "sender": {
      "address": "tz1gV3LBv1XmVEkdeRTjuUdurvCf8P85eALM"
    },
    "gasLimit": 119688,
    "gasUsed": 119588,
    "storageLimit": 0,
    "storageUsed": 0,
    "bakerFee": 12347,
    "storageFee": 0,
    "allocationFee": 0,
    "target": {
      "alias": "USDtz",
      "address": "KT1LN4LPSqTMS7Sd2CJw4bbDGRkMv2t68Fy9"
    },
    "amount": 0,
    "parameters": "{\"entrypoint\":\"approve\",\"value\":{\"prim\":\"Pair\",\"args\":[{\"string\":\"KT1Puc9St8wdNoGtLiD2WXaHbWU7styaxYhD\"},{\"int\":\"726896912\"}]}}",
    "status": "applied",
    "hasInternals": false
  }
]
