[
    {
        "type": "transaction",
        "id": 33697180,
        "level": 1165911,
        "timestamp": "2020-10-11T01:02:44Z",
        "block": "BLdN6v8DBmsJXrHXUmC2zz7zPK5x8iYzsYLkx66ofgg8qhotGdn",
        "hash": "oo8huv677AxRTa7tj4ZKRSrtrn66SmN3QrAk3xmG7cqTPh1VacP",
        "counter": 7224499,
        "initiator": {
            "address": "tz1gV3LBv1XmVEkdeRTjuUdurvCf8P85eALM"
        },
        "sender": {
            "alias": "Dexter tzBTC/XTZ",
            "address": "KT1DrJV8vhkdLEj76h1H9Q4irZDqAkMPo1Qf"
        },
        "nonce": 0,
        "gasLimit": 0,
        "gasUsed": 237853,
        "storageLimit": 0,
        "storageUsed": 0,
        "bakerFee": 0,
        "storageFee": 0,
        "allocationFee": 0,
        "target": {
            "alias": "tzBTC",
            "address": "KT1PWx2mnDueood7fEmfbBDKx1D9BAnnXitn"
        },
        "amount": 0,
        "parameters": "{\"entrypoint\":\"transfer\",\"value\":{\"prim\":\"Pair\",\"args\":[{\"bytes\":\"0000e4a76e6b5d648570b5496912e70eeb4eebf8b1d8\"},{\"prim\":\"Pair\",\"args\":[{\"bytes\":\"0139c8ade2617663981fa2b87592c9ad92714d14c200\"},{\"int\":\"19089730\"}]}]}}",
        "status": "applied",
        "hasInternals": false
    },
    {
        "type": "transaction",
        "id": 33697179,
        "level": 1165911,
        "timestamp": "2020-10-11T01:02:44Z",
        "block": "BLdN6v8DBmsJXrHXUmC2zz7zPK5x8iYzsYLkx66ofgg8qhotGdn",
        "hash": "oo8huv677AxRTa7tj4ZKRSrtrn66SmN3QrAk3xmG7cqTPh1VacP",
        "counter": 7224499,
        "sender": {
            "address": "tz1gV3LBv1XmVEkdeRTjuUdurvCf8P85eALM"
        },
        "gasLimit": 618083,
        "gasUsed": 380130,
        "storageLimit": 0,
        "storageUsed": 0,
        "bakerFee": 62165,
        "storageFee": 0,
        "allocationFee": 0,
        "target": {
            "alias": "Dexter tzBTC/XTZ",
            "address": "KT1DrJV8vhkdLEj76h1H9Q4irZDqAkMPo1Qf"
        },
        "amount": 1014983249,
        "parameters": "{\"entrypoint\":\"addLiquidity\",\"value\":{\"prim\":\"Pair\",\"args\":[{\"prim\":\"Pair\",\"args\":[{\"string\":\"tz1gV3LBv1XmVEkdeRTjuUdurvCf8P85eALM\"},{\"int\":\"1\"}]},{\"prim\":\"Pair\",\"args\":[{\"int\":\"19089730\"},{\"string\":\"2020-10-11T01:21:57.822Z\"}]}]}}",
        "status": "applied",
        "hasInternals": true
    },
    {
        "type": "transaction",
        "id": 33697178,
        "level": 1165911,
        "timestamp": "2020-10-11T01:02:44Z",
        "block": "BLdN6v8DBmsJXrHXUmC2zz7zPK5x8iYzsYLkx66ofgg8qhotGdn",
        "hash": "oo8huv677AxRTa7tj4ZKRSrtrn66SmN3QrAk3xmG7cqTPh1VacP",
        "counter": 7224498,
        "sender": {
            "address": "tz1gV3LBv1XmVEkdeRTjuUdurvCf8P85eALM"
        },
        "gasLimit": 205523,
        "gasUsed": 205423,
        "storageLimit": 0,
        "storageUsed": 0,
        "bakerFee": 20909,
        "storageFee": 0,
        "allocationFee": 0,
        "target": {
            "alias": "tzBTC",
            "address": "KT1PWx2mnDueood7fEmfbBDKx1D9BAnnXitn"
        },
        "amount": 0,
        "parameters": "{\"entrypoint\":\"approve\",\"value\":{\"prim\":\"Pair\",\"args\":[{\"string\":\"KT1DrJV8vhkdLEj76h1H9Q4irZDqAkMPo1Qf\"},{\"int\":\"19089730\"}]}}",
        "status": "applied",
        "hasInternals": false
    },
    {
        "type": "transaction",
        "id": 33697127,
        "level": 1165909,
        "timestamp": "2020-10-11T01:00:44Z",
        "block": "BKvbxS9NHZ1znW5nEzhi79zV6ddTdouU11y3fCxi5D8W1BNs3ZP",
        "hash": "opJeQutU23hjBdZhDnhEKw45vTYB787nE6CDMWAqMQ8CtBRWyyt",
        "counter": 7224497,
        "initiator": {
            "address": "tz1gV3LBv1XmVEkdeRTjuUdurvCf8P85eALM"
        },
        "sender": {
            "alias": "Dexter tzBTC/XTZ",
            "address": "KT1DrJV8vhkdLEj76h1H9Q4irZDqAkMPo1Qf"
        },
        "nonce": 0,
        "gasLimit": 0,
        "gasUsed": 235315,
        "storageLimit": 0,
        "storageUsed": 0,
        "bakerFee": 0,
        "storageFee": 0,
        "allocationFee": 0,
        "target": {
            "alias": "tzBTC",
            "address": "KT1PWx2mnDueood7fEmfbBDKx1D9BAnnXitn"
        },
        "amount": 0,
        "parameters": "{\"entrypoint\":\"transfer\",\"value\":{\"prim\":\"Pair\",\"args\":[{\"bytes\":\"0139c8ade2617663981fa2b87592c9ad92714d14c200\"},{\"prim\":\"Pair\",\"args\":[{\"bytes\":\"0000e4a76e6b5d648570b5496912e70eeb4eebf8b1d8\"},{\"int\":\"19089730\"}]}]}}",
        "status": "applied",
        "hasInternals": false
    }
]
