// Jest Snapshot v1, https://goo.gl/fbAQLP

exports[`Snapshots Add liquidity; Light mode; Applied 1`] = `
.emotion-0 {
  box-sizing: border-box;
  display: -webkit-box;
  display: -webkit-flex;
  display: -ms-flexbox;
  display: flex;
  -webkit-flex: initial;
  -ms-flex: initial;
  flex: initial;
  -webkit-flex-direction: row;
  -ms-flex-direction: row;
  flex-direction: row;
  -webkit-flex-wrap: nowrap;
  -ms-flex-wrap: nowrap;
  flex-wrap: nowrap;
  width: auto;
  max-width: 100%;
  background: #0CCA4A;
  border: 0px solid #FFFFFF;
  opacity: 1;
  margin-bottom: 12px;
  margin-left: 0;
  margin-right: 0;
  margin-top: 12px;
  padding-left: 8px;
  padding-right: 16px;
  -webkit-align-items: center;
  -webkit-box-align: center;
  -ms-flex-align: center;
  align-items: center;
  -webkit-box-pack: justify;
  -webkit-justify-content: space-between;
  -ms-flex-pack: justify;
  justify-content: space-between;
  min-height: 36px;
  border: 1px solid #0CCA4A;
}

.emotion-0:focus {
  outline: 0px solid #FFFFFF;
}

.emotion-0>img {
  max-width: 100%;
  max-height: 100%;
}

.emotion-1 {
  box-sizing: border-box;
  display: -webkit-box;
  display: -webkit-flex;
  display: -ms-flexbox;
  display: flex;
  -webkit-flex: initial;
  -ms-flex: initial;
  flex: initial;
  -webkit-flex-direction: row;
  -ms-flex-direction: row;
  flex-direction: row;
  -webkit-flex-wrap: nowrap;
  -ms-flex-wrap: nowrap;
  flex-wrap: nowrap;
  width: auto;
  max-width: 100%;
  background: transparent;
  border: 0px solid #FFFFFF;
  opacity: 1;
  margin-bottom: 0;
  margin-left: 0;
  margin-right: 0;
  margin-top: 0;
  -webkit-align-items: center;
  -webkit-box-align: center;
  -ms-flex-align: center;
  align-items: center;
}

.emotion-1:focus {
  outline: 0px solid #FFFFFF;
}

.emotion-1>img {
  max-width: 100%;
  max-height: 100%;
}

.emotion-2 {
  box-sizing: border-box;
  display: -webkit-box;
  display: -webkit-flex;
  display: -ms-flexbox;
  display: flex;
  -webkit-flex: initial;
  -ms-flex: initial;
  flex: initial;
  -webkit-flex-direction: row;
  -ms-flex-direction: row;
  flex-direction: row;
  -webkit-flex-wrap: nowrap;
  -ms-flex-wrap: nowrap;
  flex-wrap: nowrap;
  width: auto;
  max-width: 100%;
  background: transparent;
  border: 0px solid #FFFFFF;
  opacity: 1;
  margin-bottom: 0;
  margin-left: 0;
  margin-right: 8px;
  margin-top: 0;
}

.emotion-2:focus {
  outline: 0px solid #FFFFFF;
}

.emotion-2>img {
  max-width: 100%;
  max-height: 100%;
}

.emotion-3 {
  line-height: 13px;
  font-size: 10px;
  display: inline-block;
  color: #FFFFFF;
  font-family: Source Sans Pro,sans-serif;
  width: auto;
  text-overflow: initial;
  max-width: 100%;
  overflow: visible;
  font-size: 20px;
}

.emotion-3>* {
  color: #FFFFFF;
}

.emotion-5 {
  line-height: 13px;
  font-size: 10px;
  display: inline-block;
  color: #FFFFFF;
  font-family: Source Sans Pro,sans-serif;
  width: auto;
  text-overflow: initial;
  max-width: 100%;
  overflow: visible;
  font-weight: 600;
}

.emotion-5>* {
  color: #FFFFFF;
}

.emotion-6 {
  box-sizing: border-box;
  display: -webkit-box;
  display: -webkit-flex;
  display: -ms-flexbox;
  display: flex;
  -webkit-flex: initial;
  -ms-flex: initial;
  flex: initial;
  -webkit-flex-direction: row;
  -ms-flex-direction: row;
  flex-direction: row;
  -webkit-flex-wrap: nowrap;
  -ms-flex-wrap: nowrap;
  flex-wrap: nowrap;
  width: auto;
  max-width: 100%;
  background: transparent;
  border: 0px solid #FFFFFF;
  opacity: 1;
  margin-bottom: 0;
  margin-left: 0;
  margin-right: 0;
  margin-top: 0;
  cursor: pointer;
  touch-action: manipulation;
}

.emotion-6:focus {
  outline: 0px solid #FFFFFF;
}

.emotion-6>img {
  max-width: 100%;
  max-height: 100%;
}

.emotion-7 {
  line-height: 13px;
  font-size: 10px;
  display: inline-block;
  color: #FFFFFF;
  font-family: Source Sans Pro,sans-serif;
  width: auto;
  text-overflow: initial;
  max-width: 100%;
  overflow: visible;
  -webkit-text-decoration: underline;
  text-decoration: underline;
}

.emotion-7>* {
  color: #FFFFFF;
}

<div>
  <div
    class="emotion-0"
  >
    <div
      class="emotion-1"
    >
      <div
        class="emotion-2"
      >
        <span
          class="text emotion-3"
        >
          <span
            class="text emotion-3"
          >
            <i
              class="icon-checked"
            />
          </span>
        </span>
      </div>
      <span
        class="text emotion-5"
      >
        Add Liquidity transaction successful!
      </span>
    </div>
    <button
      class="emotion-6"
      type="button"
    >
      <span
        class="text emotion-7"
      >
        Clear
      </span>
    </button>
  </div>
</div>
`;

exports[`Snapshots Exchange ; Dark mode; Failed 1`] = `
.emotion-0 {
  box-sizing: border-box;
  display: -webkit-box;
  display: -webkit-flex;
  display: -ms-flexbox;
  display: flex;
  -webkit-flex: initial;
  -ms-flex: initial;
  flex: initial;
  -webkit-flex-direction: row;
  -ms-flex-direction: row;
  flex-direction: row;
  -webkit-flex-wrap: nowrap;
  -ms-flex-wrap: nowrap;
  flex-wrap: nowrap;
  width: auto;
  max-width: 100%;
  background: #E25453;
  border: 0px solid #FFFFFF;
  opacity: 1;
  margin-bottom: 12px;
  margin-left: 0;
  margin-right: 0;
  margin-top: 12px;
  padding-left: 8px;
  padding-right: 16px;
  -webkit-align-items: center;
  -webkit-box-align: center;
  -ms-flex-align: center;
  align-items: center;
  -webkit-box-pack: justify;
  -webkit-justify-content: space-between;
  -ms-flex-pack: justify;
  justify-content: space-between;
  min-height: 36px;
  border: 1px solid #E25453;
}

.emotion-0:focus {
  outline: 0px solid #FFFFFF;
}

.emotion-0>img {
  max-width: 100%;
  max-height: 100%;
}

.emotion-1 {
  box-sizing: border-box;
  display: -webkit-box;
  display: -webkit-flex;
  display: -ms-flexbox;
  display: flex;
  -webkit-flex: initial;
  -ms-flex: initial;
  flex: initial;
  -webkit-flex-direction: row;
  -ms-flex-direction: row;
  flex-direction: row;
  -webkit-flex-wrap: nowrap;
  -ms-flex-wrap: nowrap;
  flex-wrap: nowrap;
  width: auto;
  max-width: 100%;
  background: transparent;
  border: 0px solid #FFFFFF;
  opacity: 1;
  margin-bottom: 0;
  margin-left: 0;
  margin-right: 0;
  margin-top: 0;
  -webkit-align-items: center;
  -webkit-box-align: center;
  -ms-flex-align: center;
  align-items: center;
}

.emotion-1:focus {
  outline: 0px solid #FFFFFF;
}

.emotion-1>img {
  max-width: 100%;
  max-height: 100%;
}

.emotion-2 {
  box-sizing: border-box;
  display: -webkit-box;
  display: -webkit-flex;
  display: -ms-flexbox;
  display: flex;
  -webkit-flex: initial;
  -ms-flex: initial;
  flex: initial;
  -webkit-flex-direction: row;
  -ms-flex-direction: row;
  flex-direction: row;
  -webkit-flex-wrap: nowrap;
  -ms-flex-wrap: nowrap;
  flex-wrap: nowrap;
  width: auto;
  max-width: 100%;
  background: transparent;
  border: 0px solid #FFFFFF;
  opacity: 1;
  margin-bottom: 0;
  margin-left: 0;
  margin-right: 8px;
  margin-top: 0;
}

.emotion-2:focus {
  outline: 0px solid #FFFFFF;
}

.emotion-2>img {
  max-width: 100%;
  max-height: 100%;
}

.emotion-3 {
  line-height: 13px;
  font-size: 10px;
  display: inline-block;
  color: #FFFFFF;
  font-family: Source Sans Pro,sans-serif;
  width: auto;
  text-overflow: initial;
  max-width: 100%;
  overflow: visible;
  font-size: 20px;
}

.emotion-3>* {
  color: #FFFFFF;
}

.emotion-5 {
  line-height: 13px;
  font-size: 10px;
  display: inline-block;
  color: #FFFFFF;
  font-family: Source Sans Pro,sans-serif;
  width: auto;
  text-overflow: initial;
  max-width: 100%;
  overflow: visible;
  font-weight: 600;
}

.emotion-5>* {
  color: #FFFFFF;
}

.emotion-6 {
  box-sizing: border-box;
  display: -webkit-box;
  display: -webkit-flex;
  display: -ms-flexbox;
  display: flex;
  -webkit-flex: initial;
  -ms-flex: initial;
  flex: initial;
  -webkit-flex-direction: row;
  -ms-flex-direction: row;
  flex-direction: row;
  -webkit-flex-wrap: nowrap;
  -ms-flex-wrap: nowrap;
  flex-wrap: nowrap;
  width: auto;
  max-width: 100%;
  background: transparent;
  border: 0px solid #FFFFFF;
  opacity: 1;
  margin-bottom: 0;
  margin-left: 0;
  margin-right: 0;
  margin-top: 0;
  cursor: pointer;
  touch-action: manipulation;
}

.emotion-6:focus {
  outline: 0px solid #FFFFFF;
}

.emotion-6>img {
  max-width: 100%;
  max-height: 100%;
}

.emotion-7 {
  line-height: 13px;
  font-size: 10px;
  display: inline-block;
  color: #FFFFFF;
  font-family: Source Sans Pro,sans-serif;
  width: auto;
  text-overflow: initial;
  max-width: 100%;
  overflow: visible;
  -webkit-text-decoration: underline;
  text-decoration: underline;
}

.emotion-7>* {
  color: #FFFFFF;
}

<div>
  <div
    class="emotion-0"
  >
    <div
      class="emotion-1"
    >
      <div
        class="emotion-2"
      >
        <span
          class="text emotion-3"
        >
          <span
            class="text emotion-3"
          >
            <i
              class="icon-cancel"
            />
          </span>
        </span>
      </div>
      <span
        class="text emotion-5"
      >
        Exchange transaction failed
      </span>
    </div>
    <button
      class="emotion-6"
      type="button"
    >
      <span
        class="text emotion-7"
      >
        Clear
      </span>
    </button>
  </div>
</div>
`;

exports[`Snapshots Exchange and send; Dark mode; Applied 1`] = `
.emotion-0 {
  box-sizing: border-box;
  display: -webkit-box;
  display: -webkit-flex;
  display: -ms-flexbox;
  display: flex;
  -webkit-flex: initial;
  -ms-flex: initial;
  flex: initial;
  -webkit-flex-direction: row;
  -ms-flex-direction: row;
  flex-direction: row;
  -webkit-flex-wrap: nowrap;
  -ms-flex-wrap: nowrap;
  flex-wrap: nowrap;
  width: auto;
  max-width: 100%;
  background: #0CCA4A;
  border: 0px solid #FFFFFF;
  opacity: 1;
  margin-bottom: 12px;
  margin-left: 0;
  margin-right: 0;
  margin-top: 12px;
  padding-left: 8px;
  padding-right: 16px;
  -webkit-align-items: center;
  -webkit-box-align: center;
  -ms-flex-align: center;
  align-items: center;
  -webkit-box-pack: justify;
  -webkit-justify-content: space-between;
  -ms-flex-pack: justify;
  justify-content: space-between;
  min-height: 36px;
  border: 1px solid #0CCA4A;
}

.emotion-0:focus {
  outline: 0px solid #FFFFFF;
}

.emotion-0>img {
  max-width: 100%;
  max-height: 100%;
}

.emotion-1 {
  box-sizing: border-box;
  display: -webkit-box;
  display: -webkit-flex;
  display: -ms-flexbox;
  display: flex;
  -webkit-flex: initial;
  -ms-flex: initial;
  flex: initial;
  -webkit-flex-direction: row;
  -ms-flex-direction: row;
  flex-direction: row;
  -webkit-flex-wrap: nowrap;
  -ms-flex-wrap: nowrap;
  flex-wrap: nowrap;
  width: auto;
  max-width: 100%;
  background: transparent;
  border: 0px solid #FFFFFF;
  opacity: 1;
  margin-bottom: 0;
  margin-left: 0;
  margin-right: 0;
  margin-top: 0;
  -webkit-align-items: center;
  -webkit-box-align: center;
  -ms-flex-align: center;
  align-items: center;
}

.emotion-1:focus {
  outline: 0px solid #FFFFFF;
}

.emotion-1>img {
  max-width: 100%;
  max-height: 100%;
}

.emotion-2 {
  box-sizing: border-box;
  display: -webkit-box;
  display: -webkit-flex;
  display: -ms-flexbox;
  display: flex;
  -webkit-flex: initial;
  -ms-flex: initial;
  flex: initial;
  -webkit-flex-direction: row;
  -ms-flex-direction: row;
  flex-direction: row;
  -webkit-flex-wrap: nowrap;
  -ms-flex-wrap: nowrap;
  flex-wrap: nowrap;
  width: auto;
  max-width: 100%;
  background: transparent;
  border: 0px solid #FFFFFF;
  opacity: 1;
  margin-bottom: 0;
  margin-left: 0;
  margin-right: 8px;
  margin-top: 0;
}

.emotion-2:focus {
  outline: 0px solid #FFFFFF;
}

.emotion-2>img {
  max-width: 100%;
  max-height: 100%;
}

.emotion-3 {
  line-height: 13px;
  font-size: 10px;
  display: inline-block;
  color: #FFFFFF;
  font-family: Source Sans Pro,sans-serif;
  width: auto;
  text-overflow: initial;
  max-width: 100%;
  overflow: visible;
  font-size: 20px;
}

.emotion-3>* {
  color: #FFFFFF;
}

.emotion-5 {
  line-height: 13px;
  font-size: 10px;
  display: inline-block;
  color: #FFFFFF;
  font-family: Source Sans Pro,sans-serif;
  width: auto;
  text-overflow: initial;
  max-width: 100%;
  overflow: visible;
  font-weight: 600;
}

.emotion-5>* {
  color: #FFFFFF;
}

.emotion-6 {
  box-sizing: border-box;
  display: -webkit-box;
  display: -webkit-flex;
  display: -ms-flexbox;
  display: flex;
  -webkit-flex: initial;
  -ms-flex: initial;
  flex: initial;
  -webkit-flex-direction: row;
  -ms-flex-direction: row;
  flex-direction: row;
  -webkit-flex-wrap: nowrap;
  -ms-flex-wrap: nowrap;
  flex-wrap: nowrap;
  width: auto;
  max-width: 100%;
  background: transparent;
  border: 0px solid #FFFFFF;
  opacity: 1;
  margin-bottom: 0;
  margin-left: 0;
  margin-right: 0;
  margin-top: 0;
  cursor: pointer;
  touch-action: manipulation;
}

.emotion-6:focus {
  outline: 0px solid #FFFFFF;
}

.emotion-6>img {
  max-width: 100%;
  max-height: 100%;
}

.emotion-7 {
  line-height: 13px;
  font-size: 10px;
  display: inline-block;
  color: #FFFFFF;
  font-family: Source Sans Pro,sans-serif;
  width: auto;
  text-overflow: initial;
  max-width: 100%;
  overflow: visible;
  -webkit-text-decoration: underline;
  text-decoration: underline;
}

.emotion-7>* {
  color: #FFFFFF;
}

<div>
  <div
    class="emotion-0"
  >
    <div
      class="emotion-1"
    >
      <div
        class="emotion-2"
      >
        <span
          class="text emotion-3"
        >
          <span
            class="text emotion-3"
          >
            <i
              class="icon-checked"
            />
          </span>
        </span>
      </div>
      <span
        class="text emotion-5"
      >
        Exchange and send transaction successful!
      </span>
    </div>
    <button
      class="emotion-6"
      type="button"
    >
      <span
        class="text emotion-7"
      >
        Clear
      </span>
    </button>
  </div>
</div>
`;

exports[`Snapshots Exchange; Dark mode; Applied 1`] = `
.emotion-0 {
  box-sizing: border-box;
  display: -webkit-box;
  display: -webkit-flex;
  display: -ms-flexbox;
  display: flex;
  -webkit-flex: initial;
  -ms-flex: initial;
  flex: initial;
  -webkit-flex-direction: row;
  -ms-flex-direction: row;
  flex-direction: row;
  -webkit-flex-wrap: nowrap;
  -ms-flex-wrap: nowrap;
  flex-wrap: nowrap;
  width: auto;
  max-width: 100%;
  background: #0CCA4A;
  border: 0px solid #FFFFFF;
  opacity: 1;
  margin-bottom: 12px;
  margin-left: 0;
  margin-right: 0;
  margin-top: 12px;
  padding-left: 8px;
  padding-right: 16px;
  -webkit-align-items: center;
  -webkit-box-align: center;
  -ms-flex-align: center;
  align-items: center;
  -webkit-box-pack: justify;
  -webkit-justify-content: space-between;
  -ms-flex-pack: justify;
  justify-content: space-between;
  min-height: 36px;
  border: 1px solid #0CCA4A;
}

.emotion-0:focus {
  outline: 0px solid #FFFFFF;
}

.emotion-0>img {
  max-width: 100%;
  max-height: 100%;
}

.emotion-1 {
  box-sizing: border-box;
  display: -webkit-box;
  display: -webkit-flex;
  display: -ms-flexbox;
  display: flex;
  -webkit-flex: initial;
  -ms-flex: initial;
  flex: initial;
  -webkit-flex-direction: row;
  -ms-flex-direction: row;
  flex-direction: row;
  -webkit-flex-wrap: nowrap;
  -ms-flex-wrap: nowrap;
  flex-wrap: nowrap;
  width: auto;
  max-width: 100%;
  background: transparent;
  border: 0px solid #FFFFFF;
  opacity: 1;
  margin-bottom: 0;
  margin-left: 0;
  margin-right: 0;
  margin-top: 0;
  -webkit-align-items: center;
  -webkit-box-align: center;
  -ms-flex-align: center;
  align-items: center;
}

.emotion-1:focus {
  outline: 0px solid #FFFFFF;
}

.emotion-1>img {
  max-width: 100%;
  max-height: 100%;
}

.emotion-2 {
  box-sizing: border-box;
  display: -webkit-box;
  display: -webkit-flex;
  display: -ms-flexbox;
  display: flex;
  -webkit-flex: initial;
  -ms-flex: initial;
  flex: initial;
  -webkit-flex-direction: row;
  -ms-flex-direction: row;
  flex-direction: row;
  -webkit-flex-wrap: nowrap;
  -ms-flex-wrap: nowrap;
  flex-wrap: nowrap;
  width: auto;
  max-width: 100%;
  background: transparent;
  border: 0px solid #FFFFFF;
  opacity: 1;
  margin-bottom: 0;
  margin-left: 0;
  margin-right: 8px;
  margin-top: 0;
}

.emotion-2:focus {
  outline: 0px solid #FFFFFF;
}

.emotion-2>img {
  max-width: 100%;
  max-height: 100%;
}

.emotion-3 {
  line-height: 13px;
  font-size: 10px;
  display: inline-block;
  color: #FFFFFF;
  font-family: Source Sans Pro,sans-serif;
  width: auto;
  text-overflow: initial;
  max-width: 100%;
  overflow: visible;
  font-size: 20px;
}

.emotion-3>* {
  color: #FFFFFF;
}

.emotion-5 {
  line-height: 13px;
  font-size: 10px;
  display: inline-block;
  color: #FFFFFF;
  font-family: Source Sans Pro,sans-serif;
  width: auto;
  text-overflow: initial;
  max-width: 100%;
  overflow: visible;
  font-weight: 600;
}

.emotion-5>* {
  color: #FFFFFF;
}

.emotion-6 {
  box-sizing: border-box;
  display: -webkit-box;
  display: -webkit-flex;
  display: -ms-flexbox;
  display: flex;
  -webkit-flex: initial;
  -ms-flex: initial;
  flex: initial;
  -webkit-flex-direction: row;
  -ms-flex-direction: row;
  flex-direction: row;
  -webkit-flex-wrap: nowrap;
  -ms-flex-wrap: nowrap;
  flex-wrap: nowrap;
  width: auto;
  max-width: 100%;
  background: transparent;
  border: 0px solid #FFFFFF;
  opacity: 1;
  margin-bottom: 0;
  margin-left: 0;
  margin-right: 0;
  margin-top: 0;
  cursor: pointer;
  touch-action: manipulation;
}

.emotion-6:focus {
  outline: 0px solid #FFFFFF;
}

.emotion-6>img {
  max-width: 100%;
  max-height: 100%;
}

.emotion-7 {
  line-height: 13px;
  font-size: 10px;
  display: inline-block;
  color: #FFFFFF;
  font-family: Source Sans Pro,sans-serif;
  width: auto;
  text-overflow: initial;
  max-width: 100%;
  overflow: visible;
  -webkit-text-decoration: underline;
  text-decoration: underline;
}

.emotion-7>* {
  color: #FFFFFF;
}

<div>
  <div
    class="emotion-0"
  >
    <div
      class="emotion-1"
    >
      <div
        class="emotion-2"
      >
        <span
          class="text emotion-3"
        >
          <span
            class="text emotion-3"
          >
            <i
              class="icon-checked"
            />
          </span>
        </span>
      </div>
      <span
        class="text emotion-5"
      >
        Exchange transaction successful!
      </span>
    </div>
    <button
      class="emotion-6"
      type="button"
    >
      <span
        class="text emotion-7"
      >
        Clear
      </span>
    </button>
  </div>
</div>
`;

exports[`Snapshots Exchange; Dark mode; Failed SlippageLimitExceeded 1`] = `
.emotion-0 {
  box-sizing: border-box;
  display: -webkit-box;
  display: -webkit-flex;
  display: -ms-flexbox;
  display: flex;
  -webkit-flex: initial;
  -ms-flex: initial;
  flex: initial;
  -webkit-flex-direction: row;
  -ms-flex-direction: row;
  flex-direction: row;
  -webkit-flex-wrap: nowrap;
  -ms-flex-wrap: nowrap;
  flex-wrap: nowrap;
  width: auto;
  max-width: 100%;
  background: #F8E4E4;
  border: 0px solid #FFFFFF;
  opacity: 1;
  margin-bottom: 12px;
  margin-left: 0;
  margin-right: 0;
  margin-top: 12px;
  padding-left: 16px;
  padding-right: 16px;
  -webkit-align-items: center;
  -webkit-box-align: center;
  -ms-flex-align: center;
  align-items: center;
  -webkit-box-pack: justify;
  -webkit-justify-content: space-between;
  -ms-flex-pack: justify;
  justify-content: space-between;
  min-height: 36px;
  border: 1px solid #E25453;
}

.emotion-0:focus {
  outline: 0px solid #FFFFFF;
}

.emotion-0>img {
  max-width: 100%;
  max-height: 100%;
}

.emotion-1 {
  box-sizing: border-box;
  display: -webkit-box;
  display: -webkit-flex;
  display: -ms-flexbox;
  display: flex;
  -webkit-flex: initial;
  -ms-flex: initial;
  flex: initial;
  -webkit-flex-direction: row;
  -ms-flex-direction: row;
  flex-direction: row;
  -webkit-flex-wrap: nowrap;
  -ms-flex-wrap: nowrap;
  flex-wrap: nowrap;
  width: auto;
  max-width: 100%;
  background: transparent;
  border: 0px solid #FFFFFF;
  opacity: 1;
  margin-bottom: 0;
  margin-left: 0;
  margin-right: 0;
  margin-top: 0;
  -webkit-align-items: center;
  -webkit-box-align: center;
  -ms-flex-align: center;
  align-items: center;
}

.emotion-1:focus {
  outline: 0px solid #FFFFFF;
}

.emotion-1>img {
  max-width: 100%;
  max-height: 100%;
}

.emotion-2 {
  line-height: 13px;
  font-size: 10px;
  display: inline-block;
  color: #E25453;
  font-family: Source Sans Pro,sans-serif;
  width: auto;
  text-overflow: initial;
  max-width: 100%;
  overflow: visible;
  font-weight: 600;
}

.emotion-2>* {
  color: #E25453;
}

.emotion-3 {
  line-height: 13px;
  font-size: 10px;
  display: inline-block;
  color: #E25453;
  font-family: Source Sans Pro,sans-serif;
  width: auto;
  text-overflow: initial;
  max-width: 100%;
  overflow: visible;
}

.emotion-3>* {
  color: #E25453;
}

.emotion-3::before {
  content: "\\00a0 ";
}

.emotion-4 {
  box-sizing: border-box;
  display: -webkit-box;
  display: -webkit-flex;
  display: -ms-flexbox;
  display: flex;
  -webkit-flex: initial;
  -ms-flex: initial;
  flex: initial;
  -webkit-flex-direction: row;
  -ms-flex-direction: row;
  flex-direction: row;
  -webkit-flex-wrap: nowrap;
  -ms-flex-wrap: nowrap;
  flex-wrap: nowrap;
  width: auto;
  max-width: 100%;
  background: transparent;
  border: 0px solid #FFFFFF;
  opacity: 1;
  margin-bottom: 0;
  margin-left: 0;
  margin-right: 0;
  margin-top: 0;
  cursor: pointer;
  touch-action: manipulation;
}

.emotion-4:focus {
  outline: 0px solid #FFFFFF;
}

.emotion-4>img {
  max-width: 100%;
  max-height: 100%;
}

.emotion-5 {
  line-height: 13px;
  font-size: 10px;
  display: inline-block;
  color: #E25453;
  font-family: Source Sans Pro,sans-serif;
  width: auto;
  text-overflow: initial;
  max-width: 100%;
  overflow: visible;
  -webkit-text-decoration: underline;
  text-decoration: underline;
}

.emotion-5>* {
  color: #E25453;
}

<div>
  <div
    class="emotion-0"
  >
    <div
      class="emotion-1"
    >
      <span
        class="text emotion-2"
      >
        Exchange failed due to price slippage.
      </span>
      <span
        class="text emotion-3"
      >
        Please try again.
      </span>
    </div>
    <button
      class="emotion-4"
      type="button"
    >
      <span
        class="text emotion-5"
      >
        Clear
      </span>
    </button>
  </div>
</div>
`;

exports[`Snapshots Exchange; Dark mode; Failed Unknown 1`] = `
.emotion-0 {
  box-sizing: border-box;
  display: -webkit-box;
  display: -webkit-flex;
  display: -ms-flexbox;
  display: flex;
  -webkit-flex: initial;
  -ms-flex: initial;
  flex: initial;
  -webkit-flex-direction: row;
  -ms-flex-direction: row;
  flex-direction: row;
  -webkit-flex-wrap: nowrap;
  -ms-flex-wrap: nowrap;
  flex-wrap: nowrap;
  width: auto;
  max-width: 100%;
  background: #E25453;
  border: 0px solid #FFFFFF;
  opacity: 1;
  margin-bottom: 12px;
  margin-left: 0;
  margin-right: 0;
  margin-top: 12px;
  padding-left: 8px;
  padding-right: 16px;
  -webkit-align-items: center;
  -webkit-box-align: center;
  -ms-flex-align: center;
  align-items: center;
  -webkit-box-pack: justify;
  -webkit-justify-content: space-between;
  -ms-flex-pack: justify;
  justify-content: space-between;
  min-height: 36px;
  border: 1px solid #E25453;
}

.emotion-0:focus {
  outline: 0px solid #FFFFFF;
}

.emotion-0>img {
  max-width: 100%;
  max-height: 100%;
}

.emotion-1 {
  box-sizing: border-box;
  display: -webkit-box;
  display: -webkit-flex;
  display: -ms-flexbox;
  display: flex;
  -webkit-flex: initial;
  -ms-flex: initial;
  flex: initial;
  -webkit-flex-direction: row;
  -ms-flex-direction: row;
  flex-direction: row;
  -webkit-flex-wrap: nowrap;
  -ms-flex-wrap: nowrap;
  flex-wrap: nowrap;
  width: auto;
  max-width: 100%;
  background: transparent;
  border: 0px solid #FFFFFF;
  opacity: 1;
  margin-bottom: 0;
  margin-left: 0;
  margin-right: 0;
  margin-top: 0;
  -webkit-align-items: center;
  -webkit-box-align: center;
  -ms-flex-align: center;
  align-items: center;
}

.emotion-1:focus {
  outline: 0px solid #FFFFFF;
}

.emotion-1>img {
  max-width: 100%;
  max-height: 100%;
}

.emotion-2 {
  box-sizing: border-box;
  display: -webkit-box;
  display: -webkit-flex;
  display: -ms-flexbox;
  display: flex;
  -webkit-flex: initial;
  -ms-flex: initial;
  flex: initial;
  -webkit-flex-direction: row;
  -ms-flex-direction: row;
  flex-direction: row;
  -webkit-flex-wrap: nowrap;
  -ms-flex-wrap: nowrap;
  flex-wrap: nowrap;
  width: auto;
  max-width: 100%;
  background: transparent;
  border: 0px solid #FFFFFF;
  opacity: 1;
  margin-bottom: 0;
  margin-left: 0;
  margin-right: 8px;
  margin-top: 0;
}

.emotion-2:focus {
  outline: 0px solid #FFFFFF;
}

.emotion-2>img {
  max-width: 100%;
  max-height: 100%;
}

.emotion-3 {
  line-height: 13px;
  font-size: 10px;
  display: inline-block;
  color: #FFFFFF;
  font-family: Source Sans Pro,sans-serif;
  width: auto;
  text-overflow: initial;
  max-width: 100%;
  overflow: visible;
  font-size: 20px;
}

.emotion-3>* {
  color: #FFFFFF;
}

.emotion-5 {
  line-height: 13px;
  font-size: 10px;
  display: inline-block;
  color: #FFFFFF;
  font-family: Source Sans Pro,sans-serif;
  width: auto;
  text-overflow: initial;
  max-width: 100%;
  overflow: visible;
  font-weight: 600;
}

.emotion-5>* {
  color: #FFFFFF;
}

.emotion-6 {
  box-sizing: border-box;
  display: -webkit-box;
  display: -webkit-flex;
  display: -ms-flexbox;
  display: flex;
  -webkit-flex: initial;
  -ms-flex: initial;
  flex: initial;
  -webkit-flex-direction: row;
  -ms-flex-direction: row;
  flex-direction: row;
  -webkit-flex-wrap: nowrap;
  -ms-flex-wrap: nowrap;
  flex-wrap: nowrap;
  width: auto;
  max-width: 100%;
  background: transparent;
  border: 0px solid #FFFFFF;
  opacity: 1;
  margin-bottom: 0;
  margin-left: 0;
  margin-right: 0;
  margin-top: 0;
  cursor: pointer;
  touch-action: manipulation;
}

.emotion-6:focus {
  outline: 0px solid #FFFFFF;
}

.emotion-6>img {
  max-width: 100%;
  max-height: 100%;
}

.emotion-7 {
  line-height: 13px;
  font-size: 10px;
  display: inline-block;
  color: #FFFFFF;
  font-family: Source Sans Pro,sans-serif;
  width: auto;
  text-overflow: initial;
  max-width: 100%;
  overflow: visible;
  -webkit-text-decoration: underline;
  text-decoration: underline;
}

.emotion-7>* {
  color: #FFFFFF;
}

<div>
  <div
    class="emotion-0"
  >
    <div
      class="emotion-1"
    >
      <div
        class="emotion-2"
      >
        <span
          class="text emotion-3"
        >
          <span
            class="text emotion-3"
          >
            <i
              class="icon-cancel"
            />
          </span>
        </span>
      </div>
      <span
        class="text emotion-5"
      >
        Exchange transaction failed
      </span>
    </div>
    <button
      class="emotion-6"
      type="button"
    >
      <span
        class="text emotion-7"
      >
        Clear
      </span>
    </button>
  </div>
</div>
`;

exports[`Snapshots Exchange; Light mode; Pending 1`] = `
@keyframes animation-0 {
  0% {
    -webkit-transform: rotate(0deg);
    -ms-transform: rotate(0deg);
    transform: rotate(0deg);
  }

  100% {
    -webkit-transform: rotate(360deg);
    -ms-transform: rotate(360deg);
    transform: rotate(360deg);
  }
}

.emotion-0 {
  box-sizing: border-box;
  display: -webkit-box;
  display: -webkit-flex;
  display: -ms-flexbox;
  display: flex;
  -webkit-flex: initial;
  -ms-flex: initial;
  flex: initial;
  -webkit-flex-direction: row;
  -ms-flex-direction: row;
  flex-direction: row;
  -webkit-flex-wrap: nowrap;
  -ms-flex-wrap: nowrap;
  flex-wrap: nowrap;
  width: auto;
  max-width: 100%;
  background: #7585FF;
  border: 0px solid #FFFFFF;
  opacity: 1;
  margin-bottom: 12px;
  margin-left: 0;
  margin-right: 0;
  margin-top: 12px;
  padding-left: 8px;
  padding-right: 16px;
  -webkit-align-items: center;
  -webkit-box-align: center;
  -ms-flex-align: center;
  align-items: center;
  -webkit-box-pack: justify;
  -webkit-justify-content: space-between;
  -ms-flex-pack: justify;
  justify-content: space-between;
  min-height: 36px;
  border: 1px solid #7585FF;
}

.emotion-0:focus {
  outline: 0px solid #FFFFFF;
}

.emotion-0>img {
  max-width: 100%;
  max-height: 100%;
}

.emotion-1 {
  box-sizing: border-box;
  display: -webkit-box;
  display: -webkit-flex;
  display: -ms-flexbox;
  display: flex;
  -webkit-flex: initial;
  -ms-flex: initial;
  flex: initial;
  -webkit-flex-direction: row;
  -ms-flex-direction: row;
  flex-direction: row;
  -webkit-flex-wrap: nowrap;
  -ms-flex-wrap: nowrap;
  flex-wrap: nowrap;
  width: auto;
  max-width: 100%;
  background: transparent;
  border: 0px solid #FFFFFF;
  opacity: 1;
  margin-bottom: 0;
  margin-left: 0;
  margin-right: 0;
  margin-top: 0;
  -webkit-align-items: center;
  -webkit-box-align: center;
  -ms-flex-align: center;
  align-items: center;
}

.emotion-1:focus {
  outline: 0px solid #FFFFFF;
}

.emotion-1>img {
  max-width: 100%;
  max-height: 100%;
}

.emotion-2 {
  box-sizing: border-box;
  display: -webkit-box;
  display: -webkit-flex;
  display: -ms-flexbox;
  display: flex;
  -webkit-flex: initial;
  -ms-flex: initial;
  flex: initial;
  -webkit-flex-direction: row;
  -ms-flex-direction: row;
  flex-direction: row;
  -webkit-flex-wrap: nowrap;
  -ms-flex-wrap: nowrap;
  flex-wrap: nowrap;
  width: auto;
  max-width: 100%;
  background: transparent;
  border: 0px solid #FFFFFF;
  opacity: 1;
  margin-bottom: 0;
  margin-left: 0;
  margin-right: 8px;
  margin-top: 0;
}

.emotion-2:focus {
  outline: 0px solid #FFFFFF;
}

.emotion-2>img {
  max-width: 100%;
  max-height: 100%;
}

.emotion-3 {
  line-height: 13px;
  font-size: 10px;
  display: inline-block;
  color: #FFFFFF;
  font-family: Source Sans Pro,sans-serif;
  width: auto;
  text-overflow: initial;
  max-width: 100%;
  overflow: visible;
  font-size: 20px;
}

.emotion-3>* {
  color: #FFFFFF;
}

.emotion-4 {
  box-sizing: border-box;
  display: -webkit-box;
  display: -webkit-flex;
  display: -ms-flexbox;
  display: flex;
  -webkit-flex: initial;
  -ms-flex: initial;
  flex: initial;
  -webkit-flex-direction: column;
  -ms-flex-direction: column;
  flex-direction: column;
  -webkit-flex-wrap: nowrap;
  -ms-flex-wrap: nowrap;
  flex-wrap: nowrap;
  width: auto;
  max-width: 100%;
  background: transparent;
  border: 0px solid #FFFFFF;
  opacity: 1;
  margin-bottom: 0;
  margin-left: 0;
  margin-right: 0;
  margin-top: 0;
  -webkit-align-items: center;
  -webkit-box-align: center;
  -ms-flex-align: center;
  align-items: center;
}

.emotion-4:focus {
  outline: 0px solid #FFFFFF;
}

.emotion-4>img {
  max-width: 100%;
  max-height: 100%;
}

.emotion-5 {
  box-sizing: border-box;
  display: -webkit-box;
  display: -webkit-flex;
  display: -ms-flexbox;
  display: flex;
  -webkit-flex: initial;
  -ms-flex: initial;
  flex: initial;
  -webkit-flex-direction: row;
  -ms-flex-direction: row;
  flex-direction: row;
  -webkit-flex-wrap: nowrap;
  -ms-flex-wrap: nowrap;
  flex-wrap: nowrap;
  width: 20px;
  max-width: 100%;
  background: transparent;
  border: 0px solid #FFFFFF;
  opacity: 1;
  margin-bottom: 0;
  margin-left: 0;
  margin-right: 0;
  margin-top: 0;
  height: 20px;
}

.emotion-5:focus {
  outline: 0px solid #FFFFFF;
}

.emotion-5>img {
  max-width: 100%;
  max-height: 100%;
}

.emotion-5 div {
  box-sizing: border-box;
  display: block;
  position: absolute;
  width: 20px;
  height: 20px;
  border: 2px solid transparent;
  border-radius: 50%;
  border-top-color: #FFFFFF;
  -webkit-animation: animation-0 1200ms cubic-bezier(0.5,0,0.5,1) 0ms infinite normal none running;
  animation: animation-0 1200ms cubic-bezier(0.5,0,0.5,1) 0ms infinite normal none running;
}

.emotion-5 div:nth-child(1n) {
  -webkit-animation-delay: -450ms;
  animation-delay: -450ms;
}

.emotion-5 div:nth-child(2n) {
  -webkit-animation-delay: -300ms;
  animation-delay: -300ms;
}

.emotion-5 div:nth-child(3n) {
  -webkit-animation-delay: -150ms;
  animation-delay: -150ms;
}

.emotion-6 {
  line-height: 13px;
  font-size: 10px;
  display: inline-block;
  color: #FFFFFF;
  font-family: Source Sans Pro,sans-serif;
  width: auto;
  text-overflow: initial;
  max-width: 100%;
  overflow: visible;
  font-weight: 600;
}

.emotion-6>* {
  color: #FFFFFF;
}

<div>
  <div
    class="emotion-0"
  >
    <div
      class="emotion-1"
    >
      <div
        class="emotion-2"
      >
        <span
          class="text emotion-3"
        >
          <div
            class="emotion-4"
          >
            <div
              class="emotion-5"
            >
              <div />
              <div />
              <div />
              <div />
            </div>
          </div>
        </span>
      </div>
      <span
        class="text emotion-6"
      >
        Transaction pending on the Tezos blockchain...
      </span>
    </div>
  </div>
</div>
`;

exports[`Snapshots Remove liquidity; Light mode; Failed 1`] = `
.emotion-0 {
  box-sizing: border-box;
  display: -webkit-box;
  display: -webkit-flex;
  display: -ms-flexbox;
  display: flex;
  -webkit-flex: initial;
  -ms-flex: initial;
  flex: initial;
  -webkit-flex-direction: row;
  -ms-flex-direction: row;
  flex-direction: row;
  -webkit-flex-wrap: nowrap;
  -ms-flex-wrap: nowrap;
  flex-wrap: nowrap;
  width: auto;
  max-width: 100%;
  background: #E25453;
  border: 0px solid #FFFFFF;
  opacity: 1;
  margin-bottom: 12px;
  margin-left: 0;
  margin-right: 0;
  margin-top: 12px;
  padding-left: 8px;
  padding-right: 16px;
  -webkit-align-items: center;
  -webkit-box-align: center;
  -ms-flex-align: center;
  align-items: center;
  -webkit-box-pack: justify;
  -webkit-justify-content: space-between;
  -ms-flex-pack: justify;
  justify-content: space-between;
  min-height: 36px;
  border: 1px solid #E25453;
}

.emotion-0:focus {
  outline: 0px solid #FFFFFF;
}

.emotion-0>img {
  max-width: 100%;
  max-height: 100%;
}

.emotion-1 {
  box-sizing: border-box;
  display: -webkit-box;
  display: -webkit-flex;
  display: -ms-flexbox;
  display: flex;
  -webkit-flex: initial;
  -ms-flex: initial;
  flex: initial;
  -webkit-flex-direction: row;
  -ms-flex-direction: row;
  flex-direction: row;
  -webkit-flex-wrap: nowrap;
  -ms-flex-wrap: nowrap;
  flex-wrap: nowrap;
  width: auto;
  max-width: 100%;
  background: transparent;
  border: 0px solid #FFFFFF;
  opacity: 1;
  margin-bottom: 0;
  margin-left: 0;
  margin-right: 0;
  margin-top: 0;
  -webkit-align-items: center;
  -webkit-box-align: center;
  -ms-flex-align: center;
  align-items: center;
}

.emotion-1:focus {
  outline: 0px solid #FFFFFF;
}

.emotion-1>img {
  max-width: 100%;
  max-height: 100%;
}

.emotion-2 {
  box-sizing: border-box;
  display: -webkit-box;
  display: -webkit-flex;
  display: -ms-flexbox;
  display: flex;
  -webkit-flex: initial;
  -ms-flex: initial;
  flex: initial;
  -webkit-flex-direction: row;
  -ms-flex-direction: row;
  flex-direction: row;
  -webkit-flex-wrap: nowrap;
  -ms-flex-wrap: nowrap;
  flex-wrap: nowrap;
  width: auto;
  max-width: 100%;
  background: transparent;
  border: 0px solid #FFFFFF;
  opacity: 1;
  margin-bottom: 0;
  margin-left: 0;
  margin-right: 8px;
  margin-top: 0;
}

.emotion-2:focus {
  outline: 0px solid #FFFFFF;
}

.emotion-2>img {
  max-width: 100%;
  max-height: 100%;
}

.emotion-3 {
  line-height: 13px;
  font-size: 10px;
  display: inline-block;
  color: #FFFFFF;
  font-family: Source Sans Pro,sans-serif;
  width: auto;
  text-overflow: initial;
  max-width: 100%;
  overflow: visible;
  font-size: 20px;
}

.emotion-3>* {
  color: #FFFFFF;
}

.emotion-5 {
  line-height: 13px;
  font-size: 10px;
  display: inline-block;
  color: #FFFFFF;
  font-family: Source Sans Pro,sans-serif;
  width: auto;
  text-overflow: initial;
  max-width: 100%;
  overflow: visible;
  font-weight: 600;
}

.emotion-5>* {
  color: #FFFFFF;
}

.emotion-6 {
  box-sizing: border-box;
  display: -webkit-box;
  display: -webkit-flex;
  display: -ms-flexbox;
  display: flex;
  -webkit-flex: initial;
  -ms-flex: initial;
  flex: initial;
  -webkit-flex-direction: row;
  -ms-flex-direction: row;
  flex-direction: row;
  -webkit-flex-wrap: nowrap;
  -ms-flex-wrap: nowrap;
  flex-wrap: nowrap;
  width: auto;
  max-width: 100%;
  background: transparent;
  border: 0px solid #FFFFFF;
  opacity: 1;
  margin-bottom: 0;
  margin-left: 0;
  margin-right: 0;
  margin-top: 0;
  cursor: pointer;
  touch-action: manipulation;
}

.emotion-6:focus {
  outline: 0px solid #FFFFFF;
}

.emotion-6>img {
  max-width: 100%;
  max-height: 100%;
}

.emotion-7 {
  line-height: 13px;
  font-size: 10px;
  display: inline-block;
  color: #FFFFFF;
  font-family: Source Sans Pro,sans-serif;
  width: auto;
  text-overflow: initial;
  max-width: 100%;
  overflow: visible;
  -webkit-text-decoration: underline;
  text-decoration: underline;
}

.emotion-7>* {
  color: #FFFFFF;
}

<div>
  <div
    class="emotion-0"
  >
    <div
      class="emotion-1"
    >
      <div
        class="emotion-2"
      >
        <span
          class="text emotion-3"
        >
          <span
            class="text emotion-3"
          >
            <i
              class="icon-cancel"
            />
          </span>
        </span>
      </div>
      <span
        class="text emotion-5"
      >
        Remove Liquidity transaction failed
      </span>
    </div>
    <button
      class="emotion-6"
      type="button"
    >
      <span
        class="text emotion-7"
      >
        Clear
      </span>
    </button>
  </div>
</div>
`;
