// Jest Snapshot v1, https://goo.gl/fbAQLP

exports[`Snapshots AddLiquidity 1`] = `
.emotion-0 {
  box-sizing: border-box;
  display: -webkit-box;
  display: -webkit-flex;
  display: -ms-flexbox;
  display: flex;
  -webkit-flex: initial;
  -ms-flex: initial;
  flex: initial;
  -webkit-flex-direction: row;
  -ms-flex-direction: row;
  flex-direction: row;
  -webkit-flex-wrap: nowrap;
  -ms-flex-wrap: nowrap;
  flex-wrap: nowrap;
  width: auto;
  max-width: 100%;
  background: transparent;
  border: 0px solid #FFFFFF;
  opacity: 1;
  margin-bottom: 0;
  margin-left: 0;
  margin-right: 0;
  margin-top: 0;
  opacity: 1;
}

.emotion-0:focus {
  outline: 0px solid #FFFFFF;
}

.emotion-0>img {
  max-width: 100%;
  max-height: 100%;
}

.emotion-1 {
  width: 19px;
  height: 19px;
}

<div>
  <div
    class="emotion-0"
  >
    <img
      class="emotion-1"
      src="/icons/add.svg"
    />
  </div>
</div>
`;

exports[`Snapshots Exchange 1`] = `
.emotion-0 {
  box-sizing: border-box;
  display: -webkit-box;
  display: -webkit-flex;
  display: -ms-flexbox;
  display: flex;
  -webkit-flex: initial;
  -ms-flex: initial;
  flex: initial;
  -webkit-flex-direction: row;
  -ms-flex-direction: row;
  flex-direction: row;
  -webkit-flex-wrap: nowrap;
  -ms-flex-wrap: nowrap;
  flex-wrap: nowrap;
  width: auto;
  max-width: 100%;
  background: transparent;
  border: 0px solid #FFFFFF;
  opacity: 1;
  margin-bottom: 0;
  margin-left: 0;
  margin-right: 0;
  margin-top: 0;
  opacity: 1;
}

.emotion-0:focus {
  outline: 0px solid #FFFFFF;
}

.emotion-0>img {
  max-width: 100%;
  max-height: 100%;
}

.emotion-1 {
  width: 19px;
  height: 19px;
}

<div>
  <div
    class="emotion-0"
  >
    <img
      class="emotion-1"
      src="/icons/exchange.svg"
    />
  </div>
</div>
`;

exports[`Snapshots Exchange; Disabled 1`] = `
.emotion-0 {
  box-sizing: border-box;
  display: -webkit-box;
  display: -webkit-flex;
  display: -ms-flexbox;
  display: flex;
  -webkit-flex: initial;
  -ms-flex: initial;
  flex: initial;
  -webkit-flex-direction: row;
  -ms-flex-direction: row;
  flex-direction: row;
  -webkit-flex-wrap: nowrap;
  -ms-flex-wrap: nowrap;
  flex-wrap: nowrap;
  width: auto;
  max-width: 100%;
  background: transparent;
  border: 0px solid #FFFFFF;
  opacity: 1;
  margin-bottom: 0;
  margin-left: 0;
  margin-right: 0;
  margin-top: 0;
  opacity: 0.33;
}

.emotion-0:focus {
  outline: 0px solid #FFFFFF;
}

.emotion-0>img {
  max-width: 100%;
  max-height: 100%;
}

.emotion-1 {
  width: 19px;
  height: 19px;
}

<div>
  <div
    class="emotion-0"
  >
    <img
      class="emotion-1"
      src="/icons/exchange.svg"
    />
  </div>
</div>
`;

exports[`Snapshots ExchangeAndSend 1`] = `
.emotion-0 {
  box-sizing: border-box;
  display: -webkit-box;
  display: -webkit-flex;
  display: -ms-flexbox;
  display: flex;
  -webkit-flex: initial;
  -ms-flex: initial;
  flex: initial;
  -webkit-flex-direction: row;
  -ms-flex-direction: row;
  flex-direction: row;
  -webkit-flex-wrap: nowrap;
  -ms-flex-wrap: nowrap;
  flex-wrap: nowrap;
  width: auto;
  max-width: 100%;
  background: transparent;
  border: 0px solid #FFFFFF;
  opacity: 1;
  margin-bottom: 0;
  margin-left: 0;
  margin-right: 0;
  margin-top: 0;
  opacity: 1;
}

.emotion-0:focus {
  outline: 0px solid #FFFFFF;
}

.emotion-0>img {
  max-width: 100%;
  max-height: 100%;
}

.emotion-1 {
  width: 19px;
  height: 19px;
}

<div>
  <div
    class="emotion-0"
  >
    <img
      class="emotion-1"
      src="/icons/send.svg"
    />
  </div>
</div>
`;

exports[`Snapshots RemoveLiquidity 1`] = `
.emotion-0 {
  box-sizing: border-box;
  display: -webkit-box;
  display: -webkit-flex;
  display: -ms-flexbox;
  display: flex;
  -webkit-flex: initial;
  -ms-flex: initial;
  flex: initial;
  -webkit-flex-direction: row;
  -ms-flex-direction: row;
  flex-direction: row;
  -webkit-flex-wrap: nowrap;
  -ms-flex-wrap: nowrap;
  flex-wrap: nowrap;
  width: auto;
  max-width: 100%;
  background: transparent;
  border: 0px solid #FFFFFF;
  opacity: 1;
  margin-bottom: 0;
  margin-left: 0;
  margin-right: 0;
  margin-top: 0;
  opacity: 1;
}

.emotion-0:focus {
  outline: 0px solid #FFFFFF;
}

.emotion-0>img {
  max-width: 100%;
  max-height: 100%;
}

.emotion-1 {
  width: 19px;
  height: 19px;
}

<div>
  <div
    class="emotion-0"
  >
    <img
      class="emotion-1"
      src="/icons/remove.svg"
    />
  </div>
</div>
`;
