// Jest Snapshot v1, https://goo.gl/fbAQLP

exports[`Snapshots MTZ; No tokenSearchBalances; 1`] = `
.emotion-0 {
  box-sizing: border-box;
  display: -webkit-box;
  display: -webkit-flex;
  display: -ms-flexbox;
  display: flex;
  -webkit-flex: initial;
  -ms-flex: initial;
  flex: initial;
  -webkit-flex-direction: column;
  -ms-flex-direction: column;
  flex-direction: column;
  -webkit-flex-wrap: nowrap;
  -ms-flex-wrap: nowrap;
  flex-wrap: nowrap;
  width: 0;
  max-width: 100%;
  background: transparent;
  border: 0px solid #FFFFFF;
  opacity: 1;
  margin-bottom: 0;
  margin-left: 0;
  margin-right: 0;
  margin-top: 0;
  -webkit-box-flex: 1;
  -webkit-flex-grow: 1;
  -ms-flex-positive: 1;
  flex-grow: 1;
}

.emotion-0:focus {
  outline: 0px solid #FFFFFF;
}

.emotion-0>img {
  max-width: 100%;
  max-height: 100%;
}

.emotion-1 {
  box-sizing: border-box;
  display: -webkit-box;
  display: -webkit-flex;
  display: -ms-flexbox;
  display: flex;
  -webkit-flex: initial;
  -ms-flex: initial;
  flex: initial;
  -webkit-flex-direction: row;
  -ms-flex-direction: row;
  flex-direction: row;
  -webkit-flex-wrap: nowrap;
  -ms-flex-wrap: nowrap;
  flex-wrap: nowrap;
  width: auto;
  max-width: 100%;
  background: transparent;
  border: 0px solid #FFFFFF;
  opacity: 1;
  margin-bottom: 16px;
  margin-left: 0;
  margin-right: 0;
  margin-top: 0;
}

.emotion-1:focus {
  outline: 0px solid #FFFFFF;
}

.emotion-1>img {
  max-width: 100%;
  max-height: 100%;
}

.emotion-2 {
  font-weight: 600;
  -webkit-letter-spacing: 1.75px;
  -moz-letter-spacing: 1.75px;
  -ms-letter-spacing: 1.75px;
  letter-spacing: 1.75px;
  text-transform: uppercase;
  line-height: 13px;
  font-size: 10px;
  display: inline-block;
  color: #000000;
  font-family: Source Sans Pro,sans-serif;
  width: auto;
  text-overflow: initial;
  max-width: 100%;
  overflow: visible;
}

.emotion-2>* {
  color: #000000;
}

.emotion-3 {
  box-sizing: border-box;
  display: -webkit-box;
  display: -webkit-flex;
  display: -ms-flexbox;
  display: flex;
  -webkit-flex: initial;
  -ms-flex: initial;
  flex: initial;
  -webkit-flex-direction: column;
  -ms-flex-direction: column;
  flex-direction: column;
  -webkit-flex-wrap: nowrap;
  -ms-flex-wrap: nowrap;
  flex-wrap: nowrap;
  width: auto;
  max-width: 100%;
  background: transparent;
  border: 0px solid #FFFFFF;
  opacity: 1;
  margin-bottom: 0;
  margin-left: 0;
  margin-right: 0;
  margin-top: 0;
}

.emotion-3:focus {
  outline: 0px solid #FFFFFF;
}

.emotion-3>img {
  max-width: 100%;
  max-height: 100%;
}

.emotion-4 {
  box-sizing: border-box;
  display: -webkit-box;
  display: -webkit-flex;
  display: -ms-flexbox;
  display: flex;
  -webkit-flex: initial;
  -ms-flex: initial;
  flex: initial;
  -webkit-flex-direction: row;
  -ms-flex-direction: row;
  flex-direction: row;
  -webkit-flex-wrap: nowrap;
  -ms-flex-wrap: nowrap;
  flex-wrap: nowrap;
  width: auto;
  max-width: 100%;
  background: transparent;
  border: 0px solid #FFFFFF;
  opacity: 1;
  margin-bottom: 12px;
  margin-left: 0;
  margin-right: 0;
  margin-top: 0;
  -webkit-align-items: flex-start;
  -webkit-box-align: flex-start;
  -ms-flex-align: flex-start;
  align-items: flex-start;
}

.emotion-4:focus {
  outline: 0px solid #FFFFFF;
}

.emotion-4>img {
  max-width: 100%;
  max-height: 100%;
}

.emotion-4:hover .icon {
  opacity: 1!important;
}

.emotion-5 {
  box-sizing: border-box;
  display: -webkit-box;
  display: -webkit-flex;
  display: -ms-flexbox;
  display: flex;
  -webkit-flex: initial;
  -ms-flex: initial;
  flex: initial;
  -webkit-flex-direction: row;
  -ms-flex-direction: row;
  flex-direction: row;
  -webkit-flex-wrap: nowrap;
  -ms-flex-wrap: nowrap;
  flex-wrap: nowrap;
  width: auto;
  max-width: 100%;
  background: transparent;
  border: 0px solid #FFFFFF;
  opacity: 1;
  margin-bottom: 0;
  margin-left: 0;
  margin-right: 0;
  margin-top: 0;
}

.emotion-5:focus {
  outline: 0px solid #FFFFFF;
}

.emotion-5>img {
  max-width: 100%;
  max-height: 100%;
}

.emotion-6 {
  box-sizing: border-box;
  display: -webkit-box;
  display: -webkit-flex;
  display: -ms-flexbox;
  display: flex;
  -webkit-flex: initial;
  -ms-flex: initial;
  flex: initial;
  -webkit-flex-direction: row;
  -ms-flex-direction: row;
  flex-direction: row;
  -webkit-flex-wrap: nowrap;
  -ms-flex-wrap: nowrap;
  flex-wrap: nowrap;
  width: 36px;
  max-width: 100%;
  background: transparent;
  border: 0px solid #FFFFFF;
  opacity: 1;
  margin-bottom: 0;
  margin-left: 0;
  margin-right: 0;
  margin-top: 0;
  -webkit-flex-shrink: 0;
  -ms-flex-negative: 0;
  flex-shrink: 0;
  height: 36px;
  position: relative;
}

.emotion-6:focus {
  outline: 0px solid #FFFFFF;
}

.emotion-6>img {
  max-width: 100%;
  max-height: 100%;
}

.emotion-7 {
  width: 100%;
}

.emotion-8 {
  box-sizing: border-box;
  display: -webkit-box;
  display: -webkit-flex;
  display: -ms-flexbox;
  display: flex;
  -webkit-flex: initial;
  -ms-flex: initial;
  flex: initial;
  -webkit-flex-direction: column;
  -ms-flex-direction: column;
  flex-direction: column;
  -webkit-flex-wrap: nowrap;
  -ms-flex-wrap: nowrap;
  flex-wrap: nowrap;
  width: auto;
  max-width: 100%;
  background: transparent;
  border: 0px solid #FFFFFF;
  opacity: 1;
  margin-bottom: 0;
  margin-left: 12px;
  margin-right: 0;
  margin-top: 0;
}

.emotion-8:focus {
  outline: 0px solid #FFFFFF;
}

.emotion-8>img {
  max-width: 100%;
  max-height: 100%;
}

.emotion-9 {
  box-sizing: border-box;
  display: -webkit-box;
  display: -webkit-flex;
  display: -ms-flexbox;
  display: flex;
  -webkit-flex: initial;
  -ms-flex: initial;
  flex: initial;
  -webkit-flex-direction: row;
  -ms-flex-direction: row;
  flex-direction: row;
  -webkit-flex-wrap: nowrap;
  -ms-flex-wrap: nowrap;
  flex-wrap: nowrap;
  width: auto;
  max-width: 100%;
  background: transparent;
  border: 0px solid #FFFFFF;
  opacity: 1;
  margin-bottom: 0;
  margin-left: 0;
  margin-right: 0;
  margin-top: 0;
  -webkit-align-items: center;
  -webkit-box-align: center;
  -ms-flex-align: center;
  align-items: center;
}

.emotion-9:focus {
  outline: 0px solid #FFFFFF;
}

.emotion-9>img {
  max-width: 100%;
  max-height: 100%;
}

.emotion-10 {
  line-height: 25px;
  font-size: 18px;
  font-weight: 600;
  display: inline-block;
  color: #000000;
  font-family: Source Sans Pro,sans-serif;
  width: auto;
  text-overflow: initial;
  max-width: 100%;
  overflow: visible;
  white-space: nowrap;
}

.emotion-10>* {
  color: #000000;
}

.emotion-11 {
  box-sizing: border-box;
  display: -webkit-box;
  display: -webkit-flex;
  display: -ms-flexbox;
  display: flex;
  -webkit-flex: initial;
  -ms-flex: initial;
  flex: initial;
  -webkit-flex-direction: column;
  -ms-flex-direction: column;
  flex-direction: column;
  -webkit-flex-wrap: nowrap;
  -ms-flex-wrap: nowrap;
  flex-wrap: nowrap;
  width: auto;
  max-width: 100%;
  background: transparent;
  border: 0px solid #FFFFFF;
  opacity: 1;
  margin-bottom: 0;
  margin-left: 0;
  margin-right: 0;
  margin-top: 0;
  -webkit-align-items: flex-start;
  -webkit-box-align: flex-start;
  -ms-flex-align: flex-start;
  align-items: flex-start;
  min-height: 30px;
}

.emotion-11:focus {
  outline: 0px solid #FFFFFF;
}

.emotion-11>img {
  max-width: 100%;
  max-height: 100%;
}

.emotion-12 {
  line-height: 13px;
  font-size: 10px;
  display: inline-block;
  color: #82828B;
  font-family: Source Sans Pro,sans-serif;
  width: auto;
  text-overflow: initial;
  max-width: 100%;
  overflow: visible;
  white-space: nowrap;
  opacity: 0.33;
}

.emotion-12>* {
  color: #82828B;
}

.emotion-13 {
  line-height: 13px;
  font-size: 10px;
  display: inline-block;
  color: #82828B;
  font-family: Source Sans Pro,sans-serif;
  width: auto;
  text-overflow: initial;
  max-width: 100%;
  overflow: visible;
  white-space: nowrap;
  opacity: 1;
}

.emotion-13>* {
  color: #82828B;
}

<div>
  <div
    class="emotion-0"
  >
    <div
      class="emotion-1"
    >
      <span
        class="text emotion-2"
      >
        Snapshot title
      </span>
    </div>
    <div
      class="emotion-3"
    >
      <div
        class="emotion-4"
      >
        <div
          class="emotion-5"
        >
          <div
            class="emotion-6"
          >
            <img
              class="emotion-7"
              src="/img/"
            />
          </div>
        </div>
        <div
          class="emotion-8"
        >
          <div
            class="emotion-9"
          >
            <span
              class="text emotion-10"
            >
              MTZ
            </span>
          </div>
          <div
            class="emotion-11"
          >
            <span
              class="text emotion-12"
            >
              My balance: 
              N/A
            </span>
            <span
              class="text emotion-13"
            >
              Snapshot balanceInfo 2
            </span>
          </div>
        </div>
      </div>
      Snapshot
    </div>
  </div>
</div>
`;

exports[`Snapshots XTZ/MTZ; No tokenSearchBalances; No title; 1`] = `
.emotion-0 {
  box-sizing: border-box;
  display: -webkit-box;
  display: -webkit-flex;
  display: -ms-flexbox;
  display: flex;
  -webkit-flex: initial;
  -ms-flex: initial;
  flex: initial;
  -webkit-flex-direction: column;
  -ms-flex-direction: column;
  flex-direction: column;
  -webkit-flex-wrap: nowrap;
  -ms-flex-wrap: nowrap;
  flex-wrap: nowrap;
  width: 0;
  max-width: 100%;
  background: transparent;
  border: 0px solid #FFFFFF;
  opacity: 1;
  margin-bottom: 0;
  margin-left: 0;
  margin-right: 0;
  margin-top: 0;
  -webkit-box-flex: 1;
  -webkit-flex-grow: 1;
  -ms-flex-positive: 1;
  flex-grow: 1;
}

.emotion-0:focus {
  outline: 0px solid #FFFFFF;
}

.emotion-0>img {
  max-width: 100%;
  max-height: 100%;
}

.emotion-1 {
  box-sizing: border-box;
  display: -webkit-box;
  display: -webkit-flex;
  display: -ms-flexbox;
  display: flex;
  -webkit-flex: initial;
  -ms-flex: initial;
  flex: initial;
  -webkit-flex-direction: row;
  -ms-flex-direction: row;
  flex-direction: row;
  -webkit-flex-wrap: nowrap;
  -ms-flex-wrap: nowrap;
  flex-wrap: nowrap;
  width: auto;
  max-width: 100%;
  background: transparent;
  border: 0px solid #FFFFFF;
  opacity: 1;
  margin-bottom: 16px;
  margin-left: 0;
  margin-right: 0;
  margin-top: 0;
}

.emotion-1:focus {
  outline: 0px solid #FFFFFF;
}

.emotion-1>img {
  max-width: 100%;
  max-height: 100%;
}

.emotion-2 {
  font-weight: 600;
  -webkit-letter-spacing: 1.75px;
  -moz-letter-spacing: 1.75px;
  -ms-letter-spacing: 1.75px;
  letter-spacing: 1.75px;
  text-transform: uppercase;
  line-height: 13px;
  font-size: 10px;
  display: inline-block;
  color: #000000;
  font-family: Source Sans Pro,sans-serif;
  width: auto;
  text-overflow: initial;
  max-width: 100%;
  overflow: visible;
}

.emotion-2>* {
  color: #000000;
}

.emotion-3 {
  box-sizing: border-box;
  display: -webkit-box;
  display: -webkit-flex;
  display: -ms-flexbox;
  display: flex;
  -webkit-flex: initial;
  -ms-flex: initial;
  flex: initial;
  -webkit-flex-direction: column;
  -ms-flex-direction: column;
  flex-direction: column;
  -webkit-flex-wrap: nowrap;
  -ms-flex-wrap: nowrap;
  flex-wrap: nowrap;
  width: auto;
  max-width: 100%;
  background: transparent;
  border: 0px solid #FFFFFF;
  opacity: 1;
  margin-bottom: 0;
  margin-left: 0;
  margin-right: 0;
  margin-top: 0;
}

.emotion-3:focus {
  outline: 0px solid #FFFFFF;
}

.emotion-3>img {
  max-width: 100%;
  max-height: 100%;
}

.emotion-4 {
  box-sizing: border-box;
  display: -webkit-box;
  display: -webkit-flex;
  display: -ms-flexbox;
  display: flex;
  -webkit-flex: initial;
  -ms-flex: initial;
  flex: initial;
  -webkit-flex-direction: row;
  -ms-flex-direction: row;
  flex-direction: row;
  -webkit-flex-wrap: nowrap;
  -ms-flex-wrap: nowrap;
  flex-wrap: nowrap;
  width: auto;
  max-width: 100%;
  background: transparent;
  border: 0px solid #FFFFFF;
  opacity: 1;
  margin-bottom: 12px;
  margin-left: 0;
  margin-right: 0;
  margin-top: 0;
  -webkit-align-items: flex-start;
  -webkit-box-align: flex-start;
  -ms-flex-align: flex-start;
  align-items: flex-start;
}

.emotion-4:focus {
  outline: 0px solid #FFFFFF;
}

.emotion-4>img {
  max-width: 100%;
  max-height: 100%;
}

.emotion-4:hover .icon {
  opacity: 1!important;
}

.emotion-5 {
  box-sizing: border-box;
  display: -webkit-box;
  display: -webkit-flex;
  display: -ms-flexbox;
  display: flex;
  -webkit-flex: initial;
  -ms-flex: initial;
  flex: initial;
  -webkit-flex-direction: row;
  -ms-flex-direction: row;
  flex-direction: row;
  -webkit-flex-wrap: nowrap;
  -ms-flex-wrap: nowrap;
  flex-wrap: nowrap;
  width: auto;
  max-width: 100%;
  background: transparent;
  border: 0px solid #FFFFFF;
  opacity: 1;
  margin-bottom: 0;
  margin-left: 0;
  margin-right: 0;
  margin-top: 0;
}

.emotion-5:focus {
  outline: 0px solid #FFFFFF;
}

.emotion-5>img {
  max-width: 100%;
  max-height: 100%;
}

.emotion-8 {
  box-sizing: border-box;
  display: -webkit-box;
  display: -webkit-flex;
  display: -ms-flexbox;
  display: flex;
  -webkit-flex: initial;
  -ms-flex: initial;
  flex: initial;
  -webkit-flex-direction: row;
  -ms-flex-direction: row;
  flex-direction: row;
  -webkit-flex-wrap: nowrap;
  -ms-flex-wrap: nowrap;
  flex-wrap: nowrap;
  width: 36px;
  max-width: 100%;
  background: transparent;
  border: 0px solid #FFFFFF;
  opacity: 1;
  margin-bottom: 0;
  margin-left: 0;
  margin-right: 0;
  margin-top: 0;
  -webkit-flex-shrink: 0;
  -ms-flex-negative: 0;
  flex-shrink: 0;
  height: 36px;
  position: relative;
}

.emotion-8:focus {
  outline: 0px solid #FFFFFF;
}

.emotion-8>img {
  max-width: 100%;
  max-height: 100%;
}

.emotion-9 {
  width: 100%;
}

.emotion-10 {
  box-sizing: border-box;
  display: -webkit-box;
  display: -webkit-flex;
  display: -ms-flexbox;
  display: flex;
  -webkit-flex: initial;
  -ms-flex: initial;
  flex: initial;
  -webkit-flex-direction: row;
  -ms-flex-direction: row;
  flex-direction: row;
  -webkit-flex-wrap: nowrap;
  -ms-flex-wrap: nowrap;
  flex-wrap: nowrap;
  width: auto;
  max-width: 100%;
  background: transparent;
  border: 0px solid #FFFFFF;
  opacity: 1;
  margin-bottom: 0;
  margin-left: -12px;
  margin-right: 0;
  margin-top: 0;
  z-index: 2;
}

.emotion-10:focus {
  outline: 0px solid #FFFFFF;
}

.emotion-10>img {
  max-width: 100%;
  max-height: 100%;
}

.emotion-13 {
  box-sizing: border-box;
  display: -webkit-box;
  display: -webkit-flex;
  display: -ms-flexbox;
  display: flex;
  -webkit-flex: initial;
  -ms-flex: initial;
  flex: initial;
  -webkit-flex-direction: column;
  -ms-flex-direction: column;
  flex-direction: column;
  -webkit-flex-wrap: nowrap;
  -ms-flex-wrap: nowrap;
  flex-wrap: nowrap;
  width: auto;
  max-width: 100%;
  background: transparent;
  border: 0px solid #FFFFFF;
  opacity: 1;
  margin-bottom: 0;
  margin-left: 12px;
  margin-right: 0;
  margin-top: 0;
}

.emotion-13:focus {
  outline: 0px solid #FFFFFF;
}

.emotion-13>img {
  max-width: 100%;
  max-height: 100%;
}

.emotion-14 {
  box-sizing: border-box;
  display: -webkit-box;
  display: -webkit-flex;
  display: -ms-flexbox;
  display: flex;
  -webkit-flex: initial;
  -ms-flex: initial;
  flex: initial;
  -webkit-flex-direction: row;
  -ms-flex-direction: row;
  flex-direction: row;
  -webkit-flex-wrap: nowrap;
  -ms-flex-wrap: nowrap;
  flex-wrap: nowrap;
  width: auto;
  max-width: 100%;
  background: transparent;
  border: 0px solid #FFFFFF;
  opacity: 1;
  margin-bottom: 0;
  margin-left: 0;
  margin-right: 0;
  margin-top: 0;
  -webkit-align-items: center;
  -webkit-box-align: center;
  -ms-flex-align: center;
  align-items: center;
}

.emotion-14:focus {
  outline: 0px solid #FFFFFF;
}

.emotion-14>img {
  max-width: 100%;
  max-height: 100%;
}

.emotion-15 {
  line-height: 25px;
  font-size: 18px;
  font-weight: 600;
  display: inline-block;
  color: #000000;
  font-family: Source Sans Pro,sans-serif;
  width: auto;
  text-overflow: initial;
  max-width: 100%;
  overflow: visible;
  white-space: nowrap;
}

.emotion-15>* {
  color: #000000;
}

.emotion-16 {
  box-sizing: border-box;
  display: -webkit-box;
  display: -webkit-flex;
  display: -ms-flexbox;
  display: flex;
  -webkit-flex: initial;
  -ms-flex: initial;
  flex: initial;
  -webkit-flex-direction: column;
  -ms-flex-direction: column;
  flex-direction: column;
  -webkit-flex-wrap: nowrap;
  -ms-flex-wrap: nowrap;
  flex-wrap: nowrap;
  width: auto;
  max-width: 100%;
  background: transparent;
  border: 0px solid #FFFFFF;
  opacity: 1;
  margin-bottom: 0;
  margin-left: 0;
  margin-right: 0;
  margin-top: 0;
  -webkit-align-items: flex-start;
  -webkit-box-align: flex-start;
  -ms-flex-align: flex-start;
  align-items: flex-start;
  min-height: 30px;
}

.emotion-16:focus {
  outline: 0px solid #FFFFFF;
}

.emotion-16>img {
  max-width: 100%;
  max-height: 100%;
}

.emotion-17 {
  line-height: 13px;
  font-size: 10px;
  display: inline-block;
  color: #82828B;
  font-family: Source Sans Pro,sans-serif;
  width: auto;
  text-overflow: initial;
  max-width: 100%;
  overflow: visible;
  white-space: nowrap;
  opacity: 0.33;
}

.emotion-17>* {
  color: #82828B;
}

.emotion-18 {
  line-height: 13px;
  font-size: 10px;
  display: inline-block;
  color: #82828B;
  font-family: Source Sans Pro,sans-serif;
  width: auto;
  text-overflow: initial;
  max-width: 100%;
  overflow: visible;
  white-space: nowrap;
  opacity: 1;
}

.emotion-18>* {
  color: #82828B;
}

<div>
  <div
    class="emotion-0"
  >
    <div
      class="emotion-1"
    >
      <span
        class="text emotion-2"
      >
         
      </span>
    </div>
    <div
      class="emotion-3"
    >
      <div
        class="emotion-4"
      >
        <div
          class="emotion-5"
        >
          <div
            class="emotion-5"
          >
            <div
              class="emotion-5"
            >
              <div
                class="emotion-8"
              >
                <img
                  class="emotion-9"
                  src="/img/tezos.png"
                />
              </div>
            </div>
            <div
              class="emotion-10"
            >
              <div
                class="emotion-8"
              >
                <img
                  class="emotion-9"
                  src="/img/"
                />
              </div>
            </div>
          </div>
        </div>
        <div
          class="emotion-13"
        >
          <div
            class="emotion-14"
          >
            <span
              class="text emotion-15"
            >
              XTZ/MTZ
            </span>
          </div>
          <div
            class="emotion-16"
          >
            <span
              class="text emotion-17"
            >
              My balance: 
              N/A
            </span>
            <span
              class="text emotion-18"
            >
              Snapshot balanceInfo 2
            </span>
          </div>
        </div>
      </div>
      Snapshot
    </div>
  </div>
</div>
`;

exports[`Snapshots XTZ/TZG; With tokenSearchBalances; 1`] = `
.emotion-0 {
  box-sizing: border-box;
  display: -webkit-box;
  display: -webkit-flex;
  display: -ms-flexbox;
  display: flex;
  -webkit-flex: initial;
  -ms-flex: initial;
  flex: initial;
  -webkit-flex-direction: column;
  -ms-flex-direction: column;
  flex-direction: column;
  -webkit-flex-wrap: nowrap;
  -ms-flex-wrap: nowrap;
  flex-wrap: nowrap;
  width: 0;
  max-width: 100%;
  background: transparent;
  border: 0px solid #FFFFFF;
  opacity: 1;
  margin-bottom: 0;
  margin-left: 0;
  margin-right: 0;
  margin-top: 0;
  -webkit-box-flex: 1;
  -webkit-flex-grow: 1;
  -ms-flex-positive: 1;
  flex-grow: 1;
}

.emotion-0:focus {
  outline: 0px solid #FFFFFF;
}

.emotion-0>img {
  max-width: 100%;
  max-height: 100%;
}

.emotion-1 {
  box-sizing: border-box;
  display: -webkit-box;
  display: -webkit-flex;
  display: -ms-flexbox;
  display: flex;
  -webkit-flex: initial;
  -ms-flex: initial;
  flex: initial;
  -webkit-flex-direction: row;
  -ms-flex-direction: row;
  flex-direction: row;
  -webkit-flex-wrap: nowrap;
  -ms-flex-wrap: nowrap;
  flex-wrap: nowrap;
  width: auto;
  max-width: 100%;
  background: transparent;
  border: 0px solid #FFFFFF;
  opacity: 1;
  margin-bottom: 16px;
  margin-left: 0;
  margin-right: 0;
  margin-top: 0;
}

.emotion-1:focus {
  outline: 0px solid #FFFFFF;
}

.emotion-1>img {
  max-width: 100%;
  max-height: 100%;
}

.emotion-2 {
  font-weight: 600;
  -webkit-letter-spacing: 1.75px;
  -moz-letter-spacing: 1.75px;
  -ms-letter-spacing: 1.75px;
  letter-spacing: 1.75px;
  text-transform: uppercase;
  line-height: 13px;
  font-size: 10px;
  display: inline-block;
  color: #000000;
  font-family: Source Sans Pro,sans-serif;
  width: auto;
  text-overflow: initial;
  max-width: 100%;
  overflow: visible;
}

.emotion-2>* {
  color: #000000;
}

.emotion-3 {
  box-sizing: border-box;
  display: -webkit-box;
  display: -webkit-flex;
  display: -ms-flexbox;
  display: flex;
  -webkit-flex: initial;
  -ms-flex: initial;
  flex: initial;
  -webkit-flex-direction: column;
  -ms-flex-direction: column;
  flex-direction: column;
  -webkit-flex-wrap: nowrap;
  -ms-flex-wrap: nowrap;
  flex-wrap: nowrap;
  width: auto;
  max-width: 100%;
  background: transparent;
  border: 0px solid #FFFFFF;
  opacity: 1;
  margin-bottom: 0;
  margin-left: 0;
  margin-right: 0;
  margin-top: 0;
}

.emotion-3:focus {
  outline: 0px solid #FFFFFF;
}

.emotion-3>img {
  max-width: 100%;
  max-height: 100%;
}

.emotion-4 {
  box-sizing: border-box;
  display: -webkit-box;
  display: -webkit-flex;
  display: -ms-flexbox;
  display: flex;
  -webkit-flex: initial;
  -ms-flex: initial;
  flex: initial;
  -webkit-flex-direction: row;
  -ms-flex-direction: row;
  flex-direction: row;
  -webkit-flex-wrap: nowrap;
  -ms-flex-wrap: nowrap;
  flex-wrap: nowrap;
  width: auto;
  max-width: 100%;
  background: transparent;
  border: 0px solid #FFFFFF;
  opacity: 1;
  margin-bottom: 12px;
  margin-left: 0;
  margin-right: 0;
  margin-top: 0;
  -webkit-align-items: flex-start;
  -webkit-box-align: flex-start;
  -ms-flex-align: flex-start;
  align-items: flex-start;
}

.emotion-4:focus {
  outline: 0px solid #FFFFFF;
}

.emotion-4>img {
  max-width: 100%;
  max-height: 100%;
}

.emotion-4:hover .icon {
  opacity: 1!important;
}

.emotion-5 {
  box-sizing: border-box;
  display: -webkit-box;
  display: -webkit-flex;
  display: -ms-flexbox;
  display: flex;
  -webkit-flex: initial;
  -ms-flex: initial;
  flex: initial;
  -webkit-flex-direction: row;
  -ms-flex-direction: row;
  flex-direction: row;
  -webkit-flex-wrap: nowrap;
  -ms-flex-wrap: nowrap;
  flex-wrap: nowrap;
  width: auto;
  max-width: 100%;
  background: transparent;
  border: 0px solid #FFFFFF;
  opacity: 1;
  margin-bottom: 0;
  margin-left: 0;
  margin-right: 0;
  margin-top: 0;
}

.emotion-5:focus {
  outline: 0px solid #FFFFFF;
}

.emotion-5>img {
  max-width: 100%;
  max-height: 100%;
}

.emotion-6 {
  box-sizing: border-box;
  display: -webkit-box;
  display: -webkit-flex;
  display: -ms-flexbox;
  display: flex;
  -webkit-flex: initial;
  -ms-flex: initial;
  flex: initial;
  -webkit-flex-direction: row;
  -ms-flex-direction: row;
  flex-direction: row;
  -webkit-flex-wrap: nowrap;
  -ms-flex-wrap: nowrap;
  flex-wrap: nowrap;
  width: 36px;
  max-width: 100%;
  background: transparent;
  border: 0px solid #FFFFFF;
  opacity: 1;
  margin-bottom: 0;
  margin-left: 0;
  margin-right: 0;
  margin-top: 0;
  -webkit-flex-shrink: 0;
  -ms-flex-negative: 0;
  flex-shrink: 0;
  height: 36px;
  position: relative;
}

.emotion-6:focus {
  outline: 0px solid #FFFFFF;
}

.emotion-6>img {
  max-width: 100%;
  max-height: 100%;
}

.emotion-7 {
  width: 100%;
}

.emotion-8 {
  box-sizing: border-box;
  display: -webkit-box;
  display: -webkit-flex;
  display: -ms-flexbox;
  display: flex;
  -webkit-flex: initial;
  -ms-flex: initial;
  flex: initial;
  -webkit-flex-direction: column;
  -ms-flex-direction: column;
  flex-direction: column;
  -webkit-flex-wrap: nowrap;
  -ms-flex-wrap: nowrap;
  flex-wrap: nowrap;
  width: auto;
  max-width: 100%;
  background: transparent;
  border: 0px solid #FFFFFF;
  opacity: 1;
  margin-bottom: 0;
  margin-left: 12px;
  margin-right: 0;
  margin-top: 0;
}

.emotion-8:focus {
  outline: 0px solid #FFFFFF;
}

.emotion-8>img {
  max-width: 100%;
  max-height: 100%;
}

.emotion-9 {
  box-sizing: border-box;
  display: -webkit-box;
  display: -webkit-flex;
  display: -ms-flexbox;
  display: flex;
  -webkit-flex: initial;
  -ms-flex: initial;
  flex: initial;
  -webkit-flex-direction: row;
  -ms-flex-direction: row;
  flex-direction: row;
  -webkit-flex-wrap: nowrap;
  -ms-flex-wrap: nowrap;
  flex-wrap: nowrap;
  width: auto;
  max-width: 100%;
  background: transparent;
  border: 0px solid #FFFFFF;
  opacity: 1;
  margin-bottom: 0;
  margin-left: 0;
  margin-right: 0;
  margin-top: 0;
  -webkit-align-items: center;
  -webkit-box-align: center;
  -ms-flex-align: center;
  align-items: center;
}

.emotion-9:focus {
  outline: 0px solid #FFFFFF;
}

.emotion-9>img {
  max-width: 100%;
  max-height: 100%;
}

.emotion-10 {
  line-height: 25px;
  font-size: 18px;
  font-weight: 600;
  display: inline-block;
  color: #000000;
  font-family: Source Sans Pro,sans-serif;
  width: auto;
  text-overflow: initial;
  max-width: 100%;
  overflow: visible;
  white-space: nowrap;
}

.emotion-10>* {
  color: #000000;
}

.emotion-11 {
  box-sizing: border-box;
  display: -webkit-box;
  display: -webkit-flex;
  display: -ms-flexbox;
  display: flex;
  -webkit-flex: initial;
  -ms-flex: initial;
  flex: initial;
  -webkit-flex-direction: column;
  -ms-flex-direction: column;
  flex-direction: column;
  -webkit-flex-wrap: nowrap;
  -ms-flex-wrap: nowrap;
  flex-wrap: nowrap;
  width: auto;
  max-width: 100%;
  background: transparent;
  border: 0px solid #FFFFFF;
  opacity: 1;
  margin-bottom: 0;
  margin-left: 0;
  margin-right: 0;
  margin-top: 0;
  -webkit-align-items: flex-start;
  -webkit-box-align: flex-start;
  -ms-flex-align: flex-start;
  align-items: flex-start;
  min-height: 30px;
}

.emotion-11:focus {
  outline: 0px solid #FFFFFF;
}

.emotion-11>img {
  max-width: 100%;
  max-height: 100%;
}

.emotion-12 {
  line-height: 13px;
  font-size: 10px;
  display: inline-block;
  color: #82828B;
  font-family: Source Sans Pro,sans-serif;
  width: auto;
  text-overflow: initial;
  max-width: 100%;
  overflow: visible;
  white-space: nowrap;
  opacity: 0.33;
}

.emotion-12>* {
  color: #82828B;
}

.emotion-13 {
  line-height: 13px;
  font-size: 10px;
  display: inline-block;
  color: #82828B;
  font-family: Source Sans Pro,sans-serif;
  width: auto;
  text-overflow: initial;
  max-width: 100%;
  overflow: visible;
  white-space: nowrap;
  opacity: 1;
}

.emotion-13>* {
  color: #82828B;
}

<div>
  <div
    class="emotion-0"
  >
    <div
      class="emotion-1"
    >
      <span
        class="text emotion-2"
      >
        Snapshot title
      </span>
    </div>
    <div
      class="emotion-3"
    >
      <div
        class="emotion-4"
      >
        <div
          class="emotion-5"
        >
          <div
            class="emotion-6"
          >
            <img
              class="emotion-7"
              src="/img/"
            />
          </div>
        </div>
        <div
          class="emotion-8"
        >
          <div
            class="emotion-9"
          >
            <span
              class="text emotion-10"
            >
              TZG
            </span>
          </div>
          <div
            class="emotion-11"
          >
            <span
              class="text emotion-12"
            >
              My balance: 
              N/A
            </span>
            <span
              class="text emotion-13"
            >
              Snapshot balanceInfo 2
            </span>
          </div>
        </div>
      </div>
      Snapshot
    </div>
  </div>
</div>
`;
